{ "photos": { "page": 2, "pages": 50, "perpage": 20, "total": "1000",
    "photo": [
        { "id": "48367145401", "owner": "49706182@N05", "secret": "01cc3f559d", "server": "65535", "farm": 66, "title": "Narrow boats", "ispublic": 1, "isfriend": 0, "isfamily": 0 },
        { "id": "48367146721", "owner": "144401380@N06", "secret": "1c4eacbaf5", "server": "65535", "farm": 66, "title": "DSC_3560_DxO", "ispublic": 1, "isfriend": 0, "isfamily": 0 },
        { "id": "48367146886", "owner": "76768191@N08", "secret": "32b07bdb84", "server": "65535", "farm": 66, "title": "Big City Trees", "ispublic": 1, "isfriend": 0, "isfamily": 0 },
        { "id": "48367147441", "owner": "10131865@N02", "secret": "323556c958", "server": "65535", "farm": 66, "title": "Helsingin tuomiokirkko, Helsinki, Finnland", "ispublic": 1, "isfriend": 0, "isfamily": 0 },
        { "id": "48367147916", "owner": "152814568@N03", "secret": "6ac109d2c9", "server": "65535", "farm": 66, "title": "", "ispublic": 1, "isfriend": 0, "isfamily": 0 },
        { "id": "48367148516", "owner": "40148111@N00", "secret": "f62bfe69cc", "server": "65535", "farm": 66, "title": "El Jardin Ethnobotanico (16 of 45).jpg", "ispublic": 1, "isfriend": 0, "isfamily": 0 },
        { "id": "48367150686", "owner": "60946426@N08", "secret": "bdcb7d2b31", "server": "65535", "farm": 66, "title": "Gala_415.jpg", "ispublic": 1, "isfriend": 0, "isfamily": 0 },
        { "id": "48367150696", "owner": "140007800@N06", "secret": "6d6e76da9d", "server": "65535", "farm": 66, "title": "", "ispublic": 1, "isfriend": 0, "isfamily": 0 },
        { "id": "48367150716", "owner": "31029248@N00", "secret": "34ffbaa5ee", "server": "65535", "farm": 66, "title": "Le plus beau chat du monde en vacances. #nofilter #cats #catinlove #cat #tabby #chat #instacat #catinstagram #catstagram #catsofinstagram #cats #catinlove #gingercat #orangecat  #orangetabby #ilovemycat #porncat #nikon #ğŸ˜» #ğŸ˜º", "ispublic": 1, "isfriend": 0, "isfamily": 0 },
        { "id": "48367151511", "owner": "182832244@N06", "secret": "5ba9804e15", "server": "65535", "farm": 66, "title": "24-70mm F1.8-2.8 & DSC-RX100M5: Leg, Beauty, Lady, Long hair, Human body, Floor, Abdomen, Human leg, Sitting, and Muscle.", "ispublic": 1, "isfriend": 0, "isfamily": 0 },
        { "id": "48367151591", "owner": "97637500@N00", "secret": "883d5cf4ee", "server": "65535", "farm": 66, "title": "ICAD day 53\/61 Prompt:Note to self about under paper dyicad2019 #daisyyellowart Combining, ICAD & my 365 project. 204\/365 #drawriotdaily #365somethings2019 #creativeeveryday #doitfortheprocess", "ispublic": 1, "isfriend": 0, "isfamily": 0 },
        { "id": "48367152511", "owner": "40931671@N08", "secret": "858ce93e22", "server": "65535", "farm": 66, "title": "", "ispublic": 1, "isfriend": 0, "isfamily": 0 },
        { "id": "48367153221", "owner": "36171144@N04", "secret": "821cd6cb51", "server": "65535", "farm": 66, "title": "untitled shoot-3527.jpg", "ispublic": 1, "isfriend": 0, "isfamily": 0 },
        { "id": "48367282387", "owner": "42887339@N00", "secret": "69cd91dfe0", "server": "65535", "farm": 66, "title": "0555", "ispublic": 1, "isfriend": 0, "isfamily": 0 },
        { "id": "48367283367", "owner": "147206669@N08", "secret": "656290453e", "server": "65535", "farm": 66, "title": "Mer de banda", "ispublic": 1, "isfriend": 0, "isfamily": 0 },
        { "id": "48367284747", "owner": "181637832@N07", "secret": "8b9e16fe48", "server": "65535", "farm": 66, "title": "", "ispublic": 1, "isfriend": 0, "isfamily": 0 },
        { "id": "48367285587", "owner": "34523388@N06", "secret": "c1d02196d1", "server": "65535", "farm": 66, "title": "Clervaux, Luxembourg.", "ispublic": 1, "isfriend": 0, "isfamily": 0 },
        { "id": "48367287652", "owner": "81622333@N00", "secret": "6e0c0232f8", "server": "65535", "farm": 66, "title": "\"Jim, act like a lemur!\" #closeenough", "ispublic": 1, "isfriend": 0, "isfamily": 0 },
        { "id": "48367287707", "owner": "171185987@N06", "secret": "cc8c60ebc9", "server": "65535", "farm": 66, "title": "Quer Ganhar Uma BebÃª Reborn? Saiba Como Ganharâ¤ï¸ Boneca Reborn Monica Super SorteioğŸ˜€ğŸ˜±", "ispublic": 1, "isfriend": 0, "isfamily": 0 },
        { "id": "48367288157", "owner": "95710472@N03", "secret": "1e93bd2e6d", "server": "65535", "farm": 66, "title": "- Dromore Wood - County Clare", "ispublic": 1, "isfriend": 0, "isfamily": 0 }
    ] }, "stat": "ok" }
